{
  "roles": [
    {
      "id": 1,
      "name": "User"
    },
    {
      "id": 2,
      "name": "Administrator"
    },
    {
      "id": 3,
      "name": "DBA"
    }
  ],
  "statistics": [
    {
      "id": 1,
      "iconName": "mailOutlined",
      "iconColor": "#b37feb",
      "iconBgColor": "#f9f0ff",
      "figure": "1,233",
      "desc": "Resolved tickets",
      "uom": ""
    },
    {
      "id": 2,
      "iconName": "messageOutlined",
      "iconColor": "#5cdbd3",
      "iconBgColor": "#e6fffb",
      "figure": "12",
      "desc": "Average response",
      "uom": "m"
    },
    {
      "id": 3,
      "iconName": "calendarOutlined",
      "iconColor": "#95de64",
      "iconBgColor": "#f6ffed",
      "figure": "4.32",
      "desc": "Median NPS",
      "uom": ""
    }
  ],
  "authors": [
    {
      "id": 1,
      "name": "Angelina Jolie",
      "jobTitle": "Famous Artist",
      "avatar": "https://avatarfiles.alphacoders.com/880/thumb-88081.jpg",
      "roles": [
        {
          "id": 1,
          "name": "User"
        },
        {
          "id": 2,
          "name": "Administrator"
        },
        {
          "id": 3,
          "name": "DBA"
        }
      ],
      "email": "Angelina.Jolie@gmail.com",
      "phone": "(225) 431-4998",
      "twitter": "Angelina.Jolie@gmail.com",
      "location": "Los Angeles, Cannifornia, United States",
      "biography": "Angelina Jolie is an American actress, filmmaker, and humanitarian. The recipient of such accolades as an Academy Award and three Golden Globe Awards, she has been named Hollywood's highest-paid actress multiple times.",
      "values": {
        "email": "Angelina.Jolie@gmail.com",
        "phone": "(225) 431-4998",
        "twitter": "Angelina.Jolie@gmail.com",
        "location": "Los Angeles, Cannifornia, United States"
      }
    },
    {
      "id": 2,
      "name": "Hellen Buckridge",
      "jobTitle": "Product Data Specialist",
      "avatar": "https://s3.amazonaws.com/uifaces/faces/twitter/overra/128.jpg",
      "roles": [
        {
          "id": 1,
          "name": "User"
        }
      ],
      "email": "Angelo34@gmail.com",
      "phone": "701-616-8258 x11599",
      "twitter": "Morgan.Gleichner@hotmail.com",
      "location": "4652 Schmidt Gateway",
      "biography": "Consequatur aut recusandae dolorem in officia minima aut distinctio. Sed nam inventore modi sed distinctio ratione."
    },
    {
      "id": 3,
      "name": "Elbert Fahey",
      "jobTitle": "Global Accountability Associate",
      "avatar": "https://s3.amazonaws.com/uifaces/faces/twitter/jerrybai1907/128.jpg",
      "roles": [
        {
          "id": 1,
          "name": "User"
        }
      ],
      "email": "Jefferey_Leffler@gmail.com",
      "phone": "1-928-588-8784 x45473",
      "twitter": "Adrian.Balistreri@yahoo.com",
      "location": "640 Alize Street",
      "biography": "Aut aut nisi quas velit eligendi magnam et. Alias odit quidem quae architecto sunt possimus. Voluptas magnam maxime delectus numquam architecto ab voluptatum. Sapiente reprehenderit consectetur id et."
    },
    {
      "id": 4,
      "name": "Haley Schneider",
      "jobTitle": "Senior Web Developer",
      "avatar": "https://s3.amazonaws.com/uifaces/faces/twitter/baumann_alex/128.jpg",
      "roles": [
        {
          "id": 1,
          "name": "User"
        }
      ],
      "email": "Queenie.Quitzon84@gmail.com",
      "phone": "1-529-225-6688",
      "twitter": "Ulises13@hotmail.com",
      "location": "264 Deborah Garden",
      "biography": "Est vero distinctio voluptas expedita voluptas non provident. Quam impedit quo omnis in delectus saepe."
    },
    {
      "id": 5,
      "name": "Ramona White",
      "jobTitle": "Investor Tactics Developer",
      "avatar": "https://s3.amazonaws.com/uifaces/faces/twitter/rob_thomas10/128.jpg",
      "roles": [
        {
          "id": 1,
          "name": "User"
        }
      ],
      "email": "Vergie84@gmail.com",
      "phone": "918-748-7841",
      "twitter": "Reynold_Fay80@hotmail.com",
      "location": "039 Sadie Fort",
      "biography": "Est excepturi magni iusto rerum fuga. Nulla quos animi."
    },
    {
      "id": 6,
      "name": "Prince Mayer",
      "jobTitle": "Investor Marketing Executive",
      "avatar": "https://s3.amazonaws.com/uifaces/faces/twitter/gauchomatt/128.jpg",
      "roles": [
        {
          "id": 1,
          "name": "User"
        }
      ],
      "email": "Rhea46@gmail.com",
      "phone": "320-784-8276 x4998",
      "twitter": "Dudley_King@hotmail.com",
      "location": "33599 Milan Radial",
      "biography": "Dolorem quia vero nisi distinctio. Dolorem harum tempore illum debitis quo omnis harum nulla deleniti. Sit at quae voluptate. Ut ut sunt."
    },
    {
      "id": 7,
      "name": "Paul Kuhlman",
      "jobTitle": "Internal Optimization Representative",
      "avatar": "https://s3.amazonaws.com/uifaces/faces/twitter/bublienko/128.jpg",
      "roles": [
        {
          "id": 1,
          "name": "User"
        }
      ],
      "email": "Johnson49@gmail.com",
      "phone": "595.288.0400",
      "twitter": "Randal.Bosco@gmail.com",
      "location": "73786 Corkery Islands",
      "biography": "Consequatur ipsum id esse ullam nihil quae sunt voluptas voluptates. Ut nihil dolor dolores ducimus ut sit ut. Omnis sed minima earum eum itaque beatae autem quo. Dolor et sed ipsa consequatur optio."
    },
    {
      "id": 8,
      "name": "Frederique Swaniawski",
      "jobTitle": "International Metrics Strategist",
      "avatar": "https://s3.amazonaws.com/uifaces/faces/twitter/missaaamy/128.jpg",
      "roles": [
        {
          "id": 1,
          "name": "User"
        }
      ],
      "email": "Malvina52@yahoo.com",
      "phone": "1-597-129-2060 x2460",
      "twitter": "Stephan9@gmail.com",
      "location": "9514 Malvina Lake",
      "biography": "Labore harum dicta perspiciatis aliquam voluptatum et assumenda esse. Debitis dolores et sed non sed. Magnam a voluptatem ab tempora unde nihil dolor."
    },
    {
      "id": 9,
      "name": "Mabelle Streich",
      "jobTitle": "Product Applications Officer",
      "avatar": "https://s3.amazonaws.com/uifaces/faces/twitter/Karimmove/128.jpg",
      "roles": [
        {
          "id": 1,
          "name": "User"
        }
      ],
      "email": "Kenya.Padberg@gmail.com",
      "phone": "384.540.0528 x95651",
      "twitter": "Alyson93@yahoo.com",
      "location": "836 Wyman Gardens",
      "biography": "Fugit suscipit perspiciatis voluptatem veniam. Porro vel error. Libero et cum aliquam et. Accusantium laboriosam magnam quaerat beatae ea totam sequi impedit at."
    },
    {
      "id": 10,
      "name": "Lexus Dare",
      "jobTitle": "National Marketing Designer",
      "avatar": "https://s3.amazonaws.com/uifaces/faces/twitter/hiemil/128.jpg",
      "roles": [
        {
          "id": 1,
          "name": "User"
        }
      ],
      "email": "Hank_Dickinson@yahoo.com",
      "phone": "495.790.8945 x783",
      "twitter": "Steve.Barton@yahoo.com",
      "location": "359 Walter Falls",
      "biography": "Itaque eveniet est sit. Est sapiente laudantium rerum vel nesciunt aperiam fugit quia. Odio consectetur est esse ea et et."
    },
    {
      "id": 11,
      "name": "Nona Skiles",
      "jobTitle": "Future Web Officer",
      "avatar": "https://s3.amazonaws.com/uifaces/faces/twitter/mhaligowski/128.jpg",
      "roles": [
        {
          "id": 1,
          "name": "User"
        }
      ],
      "email": "Jayda44@gmail.com",
      "phone": "1-242-780-2302 x625",
      "twitter": "Everett33@yahoo.com",
      "location": "1005 Berta Plains",
      "biography": "Quisquam temporibus eius unde architecto ea sit ut voluptatem. Fuga quis labore quo voluptatum explicabo et."
    },
    {
      "id": 12,
      "name": "Alessandra Hintz",
      "jobTitle": "Lead Markets Planner",
      "avatar": "https://s3.amazonaws.com/uifaces/faces/twitter/diesellaws/128.jpg",
      "roles": [
        {
          "id": 1,
          "name": "User"
        }
      ],
      "email": "Peter31@hotmail.com",
      "phone": "531.604.9317 x9888",
      "twitter": "Mercedes_Moore@yahoo.com",
      "location": "17377 Peyton Squares",
      "biography": "Repellendus omnis est natus autem. Doloribus adipisci ea qui minus aut odio. Quasi expedita laboriosam qui totam. Ab expedita saepe repudiandae sunt rerum qui voluptatem in."
    },
    {
      "id": 13,
      "name": "Robbie Wisozk",
      "jobTitle": "Senior Operations Liaison",
      "avatar": "https://s3.amazonaws.com/uifaces/faces/twitter/ajaxy_ru/128.jpg",
      "roles": [
        {
          "id": 1,
          "name": "User"
        }
      ],
      "email": "Rowan.Greenfelder59@hotmail.com",
      "phone": "1-896-711-7057 x1709",
      "twitter": "Francis.Schuster73@hotmail.com",
      "location": "14771 Peter Stream",
      "biography": "Saepe dolor numquam autem. Vel in sed soluta quo velit. Est qui minus aperiam ea maiores sunt libero doloremque veritatis."
    },
    {
      "id": 14,
      "name": "Chadrick Waters",
      "jobTitle": "International Brand Executive",
      "avatar": "https://s3.amazonaws.com/uifaces/faces/twitter/sawalazar/128.jpg",
      "roles": [
        {
          "id": 1,
          "name": "User"
        }
      ],
      "email": "Kitty3@yahoo.com",
      "phone": "(593) 198-4377 x61669",
      "twitter": "Bobbie59@gmail.com",
      "location": "37962 Earnest Well",
      "biography": "Quidem fugit unde hic. Tempore corrupti aut at assumenda reprehenderit et dolorum itaque ut. Nam velit voluptas id quis iste quia cumque. Aperiam incidunt quisquam incidunt et. Incidunt unde illum. Voluptatem expedita tempore temporibus eaque vitae nihil neque non totam."
    },
    {
      "id": 15,
      "name": "Ethan Oberbrunner",
      "jobTitle": "Customer Creative Assistant",
      "avatar": "https://s3.amazonaws.com/uifaces/faces/twitter/thierrymeier_/128.jpg",
      "roles": [
        {
          "id": 1,
          "name": "User"
        }
      ],
      "email": "Rose34@yahoo.com",
      "phone": "1-397-955-8652",
      "twitter": "Elias.OKeefe@gmail.com",
      "location": "90929 Price Route",
      "biography": "Ab et rerum ut laborum nam omnis at. Qui eius praesentium laboriosam et deserunt laudantium culpa. Excepturi molestias dolor quia magni eius iste est. Necessitatibus molestiae sed quia ea voluptates."
    },
    {
      "id": 16,
      "name": "Tiffany Hilll",
      "jobTitle": "Dynamic Program Assistant",
      "avatar": "https://s3.amazonaws.com/uifaces/faces/twitter/ffbel/128.jpg",
      "roles": [
        {
          "id": 1,
          "name": "User"
        }
      ],
      "email": "Stanton_Torphy@gmail.com",
      "phone": "457-545-2761 x8669",
      "twitter": "Issac.Tillman@hotmail.com",
      "location": "990 Carmela Stream",
      "biography": "Rerum enim ex. Voluptatem illum ut animi. Aut ducimus officiis quam. Non ut enim alias sint ut rerum aut quasi."
    },
    {
      "id": 17,
      "name": "Lonie Morar",
      "jobTitle": "International Operations Engineer",
      "avatar": "https://s3.amazonaws.com/uifaces/faces/twitter/her_ruu/128.jpg",
      "roles": [
        {
          "id": 1,
          "name": "User"
        }
      ],
      "email": "Kurt.Pfeffer0@hotmail.com",
      "phone": "(268) 452-3916 x94864",
      "twitter": "Lisette47@gmail.com",
      "location": "936 Von Mills",
      "biography": "Enim nam dolorum et eos sunt. Vitae reiciendis velit voluptatum. Ad commodi excepturi velit velit dolor aliquid. Cum sint veritatis tenetur maiores sit omnis. Qui magnam qui. Consequatur nisi pariatur doloremque qui."
    },
    {
      "id": 18,
      "name": "Ms. Liza Heller",
      "jobTitle": "Product Interactions Supervisor",
      "avatar": "https://s3.amazonaws.com/uifaces/faces/twitter/cemshid/128.jpg",
      "roles": [
        {
          "id": 1,
          "name": "User"
        }
      ],
      "email": "Gussie.Kshlerin@yahoo.com",
      "phone": "428.392.3503 x6542",
      "twitter": "Melissa_Reynolds83@yahoo.com",
      "location": "986 Kenna Drives",
      "biography": "Necessitatibus sit aut laboriosam labore exercitationem est alias. Mollitia molestiae maiores consequatur doloribus. Doloremque dolor rem quia voluptatem non. Qui corporis expedita tenetur facere. Quas id animi quam."
    },
    {
      "id": 19,
      "name": "Carmen Hirthe",
      "jobTitle": "Dynamic Configuration Agent",
      "avatar": "https://s3.amazonaws.com/uifaces/faces/twitter/iamsteffen/128.jpg",
      "roles": [
        {
          "id": 1,
          "name": "User"
        }
      ],
      "email": "Kellie99@hotmail.com",
      "phone": "(787) 833-9343",
      "twitter": "Earl.Hoppe46@yahoo.com",
      "location": "5879 Camren Fords",
      "biography": "Aliquam non beatae eius odit laudantium dolores est. Et incidunt dolore. A modi quia aliquid dolores ut. Ducimus numquam ea quos esse eos quia. Qui qui debitis quia blanditiis velit doloremque adipisci aspernatur ut."
    },
    {
      "id": 20,
      "name": "Al Hagenes",
      "jobTitle": "Senior Optimization Representative",
      "avatar": "https://s3.amazonaws.com/uifaces/faces/twitter/bassamology/128.jpg",
      "roles": [
        {
          "id": 1,
          "name": "User"
        }
      ],
      "email": "Emely86@gmail.com",
      "phone": "1-011-304-1237 x26872",
      "twitter": "Adolph.MacGyver@hotmail.com",
      "location": "81690 Jakubowski Port",
      "biography": "Veniam cumque voluptatibus ut quam odit aliquid. Architecto necessitatibus facilis et et expedita alias. Sit magni sit doloribus. Deleniti aliquam harum ut."
    },
    {
      "id": 21,
      "name": "Amanda Pacocha",
      "jobTitle": "Senior Division Liaison",
      "avatar": "https://s3.amazonaws.com/uifaces/faces/twitter/trueblood_33/128.jpg",
      "roles": [
        {
          "id": 1,
          "name": "User"
        }
      ],
      "email": "Crystal_Satterfield85@gmail.com",
      "phone": "801-075-7619 x0744",
      "twitter": "Lafayette12@gmail.com",
      "location": "65043 Prohaska Meadow",
      "biography": "Laudantium sint eius debitis fugiat sunt voluptatem rem aut culpa. Nostrum aliquam incidunt quia voluptatum voluptates quisquam facilis repellendus non."
    },
    {
      "id": 22,
      "name": "Jean Murphy",
      "jobTitle": "Human Directives Orchestrator",
      "avatar": "https://s3.amazonaws.com/uifaces/faces/twitter/dreizle/128.jpg",
      "roles": [
        {
          "id": 1,
          "name": "User"
        }
      ],
      "email": "Kacey_Cummings@hotmail.com",
      "phone": "427-544-4299 x6437",
      "twitter": "Allan82@gmail.com",
      "location": "003 Thalia Dam",
      "biography": "Sint nemo inventore laboriosam molestias ut id incidunt quia. Voluptates possimus sed incidunt molestias iusto aut at enim."
    },
    {
      "id": 23,
      "name": "Seamus Okuneva",
      "jobTitle": "Dynamic Quality Analyst",
      "avatar": "https://s3.amazonaws.com/uifaces/faces/twitter/longlivemyword/128.jpg",
      "roles": [
        {
          "id": 1,
          "name": "User"
        }
      ],
      "email": "Johnpaul19@gmail.com",
      "phone": "(972) 062-9483",
      "twitter": "Stefanie_Emmerich@hotmail.com",
      "location": "80483 Ondricka Streets",
      "biography": "Similique quod officiis provident maxime sit aspernatur quos rerum. Nesciunt dicta dolore. Temporibus et eveniet accusantium aut et libero. Qui qui blanditiis aliquid. Praesentium autem dolorum aut non id vitae qui omnis et."
    },
    {
      "id": 24,
      "name": "Shaina Schumm",
      "jobTitle": "Principal Solutions Assistant",
      "avatar": "https://s3.amazonaws.com/uifaces/faces/twitter/loganjlambert/128.jpg",
      "roles": [
        {
          "id": 1,
          "name": "User"
        }
      ],
      "email": "Shannon67@yahoo.com",
      "phone": "1-076-292-9030",
      "twitter": "Rey.Hartmann90@gmail.com",
      "location": "75297 Leo Summit",
      "biography": "Voluptatum et harum et rem. Ut dolorem veniam laborum voluptatum et."
    },
    {
      "id": 25,
      "name": "Janae Towne DDS",
      "jobTitle": "Future Interactions Supervisor",
      "avatar": "https://s3.amazonaws.com/uifaces/faces/twitter/sawrb/128.jpg",
      "roles": [
        {
          "id": 1,
          "name": "User"
        }
      ],
      "email": "Elta.Friesen@yahoo.com",
      "phone": "474.206.0616",
      "twitter": "Jeremie50@gmail.com",
      "location": "917 Jeffery Plains",
      "biography": "Ut laborum omnis excepturi iusto et asperiores. Accusantium ut omnis. Hic aut sit qui. Est sed recusandae et. Qui beatae rem aut excepturi velit quos dolores. Voluptas nesciunt totam corrupti repudiandae similique esse quis qui."
    },
    {
      "id": 26,
      "name": "Mathilde Pagac",
      "jobTitle": "Chief Configuration Technician",
      "avatar": "https://s3.amazonaws.com/uifaces/faces/twitter/brajeshwar/128.jpg",
      "roles": [
        {
          "id": 1,
          "name": "User"
        }
      ],
      "email": "Ottilie_Heidenreich23@hotmail.com",
      "phone": "632-249-1882 x20820",
      "twitter": "Jacklyn.Wintheiser48@gmail.com",
      "location": "824 Stroman Orchard",
      "biography": "Soluta dolores molestiae. Sint dolor et dolor est a."
    },
    {
      "id": 27,
      "name": "Abelardo Barrows",
      "jobTitle": "National Functionality Officer",
      "avatar": "https://s3.amazonaws.com/uifaces/faces/twitter/suribbles/128.jpg",
      "roles": [
        {
          "id": 1,
          "name": "User"
        }
      ],
      "email": "Willy98@yahoo.com",
      "phone": "1-158-044-8106 x45543",
      "twitter": "Gail_OConnell@yahoo.com",
      "location": "3566 Roob Landing",
      "biography": "Quam occaecati aperiam autem in accusamus reiciendis mollitia. A iusto autem quia quia ut. Qui totam illum et sequi repudiandae culpa adipisci consequatur. Incidunt in culpa odio. Exercitationem non temporibus minus ea sunt."
    },
    {
      "id": 28,
      "name": "Russ Hackett",
      "jobTitle": "Regional Infrastructure Coordinator",
      "avatar": "https://s3.amazonaws.com/uifaces/faces/twitter/chris_witko/128.jpg",
      "roles": [
        {
          "id": 1,
          "name": "User"
        }
      ],
      "email": "Donald.Dicki58@hotmail.com",
      "phone": "659-360-1941",
      "twitter": "Braxton_Heathcote30@gmail.com",
      "location": "76942 Anderson Turnpike",
      "biography": "Quae velit molestiae non voluptas. Deserunt officiis repudiandae illo aspernatur itaque iure maxime molestias repellat. Corporis adipisci veritatis qui possimus excepturi numquam odio et. Architecto quae id sit. Qui aut hic consequatur praesentium consequatur dolorem."
    },
    {
      "id": 29,
      "name": "Sherwood Marvin",
      "jobTitle": "Global Creative Strategist",
      "avatar": "https://s3.amazonaws.com/uifaces/faces/twitter/dparrelli/128.jpg",
      "roles": [
        {
          "id": 1,
          "name": "User"
        }
      ],
      "email": "Jeanie_Hilll@yahoo.com",
      "phone": "(940) 639-9218 x645",
      "twitter": "Hillard65@hotmail.com",
      "location": "519 Elsa Track",
      "biography": "Corporis delectus laudantium nisi ut esse est. Quaerat quo tenetur ducimus delectus porro repudiandae et. Molestiae officia quia aut ad quo aut. Sit nihil quae quos repellat quia maxime iste ut."
    },
    {
      "id": 30,
      "name": "Newell Hermann",
      "jobTitle": "Principal Program Designer",
      "avatar": "https://s3.amazonaws.com/uifaces/faces/twitter/raphaelnikson/128.jpg",
      "roles": [
        {
          "id": 1,
          "name": "User"
        }
      ],
      "email": "Melany_Predovic@yahoo.com",
      "phone": "543-739-4451 x21974",
      "twitter": "Niko.Grant@hotmail.com",
      "location": "4037 Darron Turnpike",
      "biography": "Similique minima accusamus nam ad libero. Reprehenderit sit soluta libero ipsum et qui nemo quia. Eum qui autem praesentium eius. Assumenda sed et. Soluta voluptas harum ex ea ut perspiciatis sed. Repudiandae optio saepe repudiandae laboriosam est."
    },
    {
      "id": 31,
      "name": "Adeline Dicki",
      "jobTitle": "Dynamic Brand Liaison",
      "avatar": "https://s3.amazonaws.com/uifaces/faces/twitter/Chakintosh/128.jpg",
      "roles": [
        {
          "id": 1,
          "name": "User"
        }
      ],
      "email": "Norwood_Leffler@yahoo.com",
      "phone": "904-273-7702 x7007",
      "twitter": "Irwin7@yahoo.com",
      "location": "8335 Wisozk Prairie",
      "biography": "Sint sunt nam accusamus et rem voluptate aut. Quasi ut dolor sunt corporis. Aut illum voluptas. Harum dolor laboriosam fugit expedita atque ullam vel."
    },
    {
      "id": 32,
      "name": "Dominic Rosenbaum",
      "jobTitle": "Global Accountability Engineer",
      "avatar": "https://s3.amazonaws.com/uifaces/faces/twitter/y2graphic/128.jpg",
      "roles": [
        {
          "id": 1,
          "name": "User"
        }
      ],
      "email": "Norval_Marquardt@yahoo.com",
      "phone": "(536) 407-2163",
      "twitter": "Krystina_Gerlach@gmail.com",
      "location": "13532 Schimmel Junction",
      "biography": "Necessitatibus dolorum possimus reprehenderit rerum voluptatem. Est et qui."
    },
    {
      "id": 33,
      "name": "Sydnee Kuhn",
      "jobTitle": "Forward Response Orchestrator",
      "avatar": "https://s3.amazonaws.com/uifaces/faces/twitter/Shriiiiimp/128.jpg",
      "roles": [
        {
          "id": 1,
          "name": "User"
        }
      ],
      "email": "Hugh.Stokes36@gmail.com",
      "phone": "214.988.0543",
      "twitter": "Imani.Reichel@hotmail.com",
      "location": "124 Marcelino Ford",
      "biography": "Iusto quaerat ducimus rerum aut. Ipsum numquam magnam. Eligendi totam aspernatur. Tempore minima veritatis assumenda hic eos ea totam occaecati."
    },
    {
      "id": 34,
      "name": "Dr. Mariam Hegmann",
      "jobTitle": "Direct Metrics Agent",
      "avatar": "https://s3.amazonaws.com/uifaces/faces/twitter/mandalareopens/128.jpg",
      "roles": [
        {
          "id": 1,
          "name": "User"
        }
      ],
      "email": "Tania90@hotmail.com",
      "phone": "1-461-598-8898",
      "twitter": "Emery51@yahoo.com",
      "location": "1873 Leon View",
      "biography": "Sit nemo ut minima reiciendis aliquam reprehenderit similique. Dolor sunt quia doloremque architecto itaque. Laudantium autem ea. Iure enim omnis consequatur sed. Dolor velit laudantium et consequuntur error quam."
    },
    {
      "id": 35,
      "name": "Lauryn Champlin",
      "jobTitle": "Investor Paradigm Agent",
      "avatar": "https://s3.amazonaws.com/uifaces/faces/twitter/ionuss/128.jpg",
      "roles": [
        {
          "id": 1,
          "name": "User"
        }
      ],
      "email": "Aniyah.Greenholt@hotmail.com",
      "phone": "1-385-865-4739",
      "twitter": "Darion.Reilly@yahoo.com",
      "location": "653 Pfannerstill Creek",
      "biography": "Nobis eaque eligendi. Deleniti neque voluptates."
    },
    {
      "id": 36,
      "name": "Libbie Bergstrom",
      "jobTitle": "National Infrastructure Technician",
      "avatar": "https://s3.amazonaws.com/uifaces/faces/twitter/robergd/128.jpg",
      "roles": [
        {
          "id": 1,
          "name": "User"
        }
      ],
      "email": "Trevion96@yahoo.com",
      "phone": "(174) 845-1166",
      "twitter": "Jacquelyn_Halvorson48@hotmail.com",
      "location": "9033 O'Keefe Avenue",
      "biography": "Placeat voluptas facere necessitatibus maiores est culpa. Hic quisquam at quia nihil rerum ut."
    },
    {
      "id": 37,
      "name": "Ervin Donnelly",
      "jobTitle": "Future Mobility Developer",
      "avatar": "https://s3.amazonaws.com/uifaces/faces/twitter/estebanuribe/128.jpg",
      "roles": [
        {
          "id": 1,
          "name": "User"
        }
      ],
      "email": "Trevor81@yahoo.com",
      "phone": "326.728.4148 x51740",
      "twitter": "Antonina85@yahoo.com",
      "location": "72888 Effertz Harbor",
      "biography": "Aut sint et quaerat. Magni eveniet sint sit sequi reprehenderit quae. Est in iste et et cum provident delectus alias a. Consequatur voluptatibus et assumenda architecto distinctio. Optio velit suscipit laboriosam. Quae sit enim."
    },
    {
      "id": 38,
      "name": "Desiree Keeling",
      "jobTitle": "Principal Intranet Producer",
      "avatar": "https://s3.amazonaws.com/uifaces/faces/twitter/nepdud/128.jpg",
      "roles": [
        {
          "id": 1,
          "name": "User"
        }
      ],
      "email": "Maurine29@yahoo.com",
      "phone": "878.300.5768",
      "twitter": "Delia_Douglas61@hotmail.com",
      "location": "588 Kailey Hills",
      "biography": "Odit aspernatur ab cumque sint iusto impedit eos dolore. Vero accusamus laboriosam. Qui ut autem molestias et sequi. Nihil alias aperiam."
    },
    {
      "id": 39,
      "name": "Gilda Welch",
      "jobTitle": "Corporate Accountability Liaison",
      "avatar": "https://s3.amazonaws.com/uifaces/faces/twitter/thierrykoblentz/128.jpg",
      "roles": [
        {
          "id": 1,
          "name": "User"
        }
      ],
      "email": "Keyshawn.Hyatt72@hotmail.com",
      "phone": "(663) 096-8446 x5145",
      "twitter": "Arlo.Romaguera@hotmail.com",
      "location": "693 Kutch Corners",
      "biography": "Occaecati sapiente unde deserunt tempore rerum. Animi rerum non aut ut. Ut fugit omnis recusandae. Aut a rem dolorum vel omnis. Qui earum corporis aliquam officia sint quae voluptas alias. Numquam id est velit neque quis iste."
    },
    {
      "id": 40,
      "name": "Makenna Conn DDS",
      "jobTitle": "National Factors Developer",
      "avatar": "https://s3.amazonaws.com/uifaces/faces/twitter/vladyn/128.jpg",
      "roles": [
        {
          "id": 1,
          "name": "User"
        }
      ],
      "email": "Javon28@hotmail.com",
      "phone": "337.710.7972 x87014",
      "twitter": "Harrison_Lemke41@hotmail.com",
      "location": "5278 Simone Plaza",
      "biography": "Saepe deleniti earum. Mollitia adipisci ipsum est."
    },
    {
      "id": 41,
      "name": "Madge Kshlerin MD",
      "jobTitle": "Forward Factors Developer",
      "avatar": "https://s3.amazonaws.com/uifaces/faces/twitter/sainraja/128.jpg",
      "roles": [
        {
          "id": 1,
          "name": "User"
        }
      ],
      "email": "Carmella57@hotmail.com",
      "phone": "(695) 644-0608 x4540",
      "twitter": "Braxton.Gorczany@hotmail.com",
      "location": "28257 Kreiger Well",
      "biography": "Fugiat iste ducimus autem consectetur rerum. Inventore accusamus dolore sequi quasi expedita debitis. Quia eveniet deleniti architecto quo autem. Earum omnis sint et. Impedit nihil et laudantium occaecati eligendi. Voluptatem qui distinctio laboriosam non veniam ut incidunt maiores earum."
    },
    {
      "id": 42,
      "name": "Keely Runolfsson",
      "jobTitle": "Corporate Markets Orchestrator",
      "avatar": "https://s3.amazonaws.com/uifaces/faces/twitter/edobene/128.jpg",
      "roles": [
        {
          "id": 1,
          "name": "User"
        }
      ],
      "email": "Marilyne.Denesik57@gmail.com",
      "phone": "1-881-616-4710 x608",
      "twitter": "Kimberly.Dicki@yahoo.com",
      "location": "341 Bernita Shores",
      "biography": "Doloremque quam consequatur. Deserunt aut suscipit in voluptatum eos debitis aut et omnis. Aspernatur eius voluptas. Alias eveniet consequatur et."
    },
    {
      "id": 43,
      "name": "Michael Smith",
      "jobTitle": "Customer Operations Specialist",
      "avatar": "https://s3.amazonaws.com/uifaces/faces/twitter/Silveredge9/128.jpg",
      "roles": [
        {
          "id": 1,
          "name": "User"
        }
      ],
      "email": "Tianna9@gmail.com",
      "phone": "(240) 884-4439 x16011",
      "twitter": "Nikolas.Wisoky15@yahoo.com",
      "location": "88247 Darby Lock",
      "biography": "Non et earum doloribus. Dolorem dolor quas qui totam qui modi ea omnis sunt. Tempora quis libero nulla magnam non porro. Non maxime dolores et maxime velit. Incidunt quo qui. Optio animi optio laborum aperiam eius debitis."
    },
    {
      "id": 44,
      "name": "Deborah McGlynn Jr.",
      "jobTitle": "Future Implementation Administrator",
      "avatar": "https://s3.amazonaws.com/uifaces/faces/twitter/leehambley/128.jpg",
      "roles": [
        {
          "id": 1,
          "name": "User"
        }
      ],
      "email": "Rosalyn85@yahoo.com",
      "phone": "1-980-637-1972 x193",
      "twitter": "Carlie.Wisoky65@yahoo.com",
      "location": "007 Bayer Parks",
      "biography": "Dicta et non aliquid reprehenderit ut illo perspiciatis porro. Voluptatum eos minus odit molestiae dolore. Et exercitationem doloribus aspernatur quam qui reiciendis. Ad quod culpa laboriosam dignissimos et eum. Voluptatem incidunt voluptatibus velit ut enim dolor pariatur rerum. Debitis ea et molestias aut laudantium libero rerum commodi ut."
    },
    {
      "id": 45,
      "name": "Ms. Judy Robel",
      "jobTitle": "Product Configuration Associate",
      "avatar": "https://s3.amazonaws.com/uifaces/faces/twitter/robergd/128.jpg",
      "roles": [
        {
          "id": 1,
          "name": "User"
        }
      ],
      "email": "Mavis75@gmail.com",
      "phone": "887-262-4060 x73111",
      "twitter": "Zelda.Wyman38@hotmail.com",
      "location": "499 Jarred Field",
      "biography": "Delectus saepe eos. Quae eos nesciunt quisquam. Sint mollitia aliquam aliquam iste debitis. Expedita nisi temporibus et. Quia quasi nesciunt labore voluptas."
    },
    {
      "id": 46,
      "name": "Al Dach",
      "jobTitle": "District Integration Producer",
      "avatar": "https://s3.amazonaws.com/uifaces/faces/twitter/teeragit/128.jpg",
      "roles": [
        {
          "id": 1,
          "name": "User"
        }
      ],
      "email": "Wilfred.Koss@yahoo.com",
      "phone": "1-511-457-9073",
      "twitter": "Montana21@hotmail.com",
      "location": "7771 Erick Prairie",
      "biography": "Illum porro tempore laudantium. In sed enim officia et placeat accusamus quia beatae. Ipsa aut aut ab ut recusandae eos neque necessitatibus."
    },
    {
      "id": 47,
      "name": "Jessyca Hodkiewicz",
      "jobTitle": "Customer Interactions Executive",
      "avatar": "https://s3.amazonaws.com/uifaces/faces/twitter/nepdud/128.jpg",
      "roles": [
        {
          "id": 1,
          "name": "User"
        }
      ],
      "email": "Austin.Trantow@hotmail.com",
      "phone": "300-195-2289",
      "twitter": "Clifton_Lang@yahoo.com",
      "location": "906 Bauch Tunnel",
      "biography": "Est molestias et placeat. Dicta pariatur et eum. Dolorum voluptatem ut dolor amet ut sunt consequuntur ut."
    },
    {
      "id": 48,
      "name": "Oran Quigley",
      "jobTitle": "Global Integration Supervisor",
      "avatar": "https://s3.amazonaws.com/uifaces/faces/twitter/deviljho_/128.jpg",
      "roles": [
        {
          "id": 1,
          "name": "User"
        }
      ],
      "email": "Calista60@hotmail.com",
      "phone": "353.022.5019 x398",
      "twitter": "Leland51@gmail.com",
      "location": "341 Jameson Ford",
      "biography": "Nesciunt molestias culpa eaque sunt. Sunt recusandae quis maiores dolores hic iure pariatur. Deserunt occaecati esse eum corporis. Ut deleniti mollitia amet eaque."
    },
    {
      "id": 49,
      "name": "Wiley Runolfsson",
      "jobTitle": "Dynamic Implementation Developer",
      "avatar": "https://s3.amazonaws.com/uifaces/faces/twitter/RussellBishop/128.jpg",
      "roles": [
        {
          "id": 1,
          "name": "User"
        }
      ],
      "email": "Alene_Bradtke73@hotmail.com",
      "phone": "1-396-875-7220",
      "twitter": "Domenica_Jerde77@yahoo.com",
      "location": "205 Mariana Alley",
      "biography": "Ad consequuntur officia dolorem temporibus. Qui minima voluptatem temporibus aut repudiandae quisquam illo. Aut eligendi et ullam ab facilis. Magnam aut perspiciatis sapiente architecto ut explicabo. Eius omnis molestiae est."
    },
    {
      "id": 50,
      "name": "Mya Flatley",
      "jobTitle": "Human Configuration Planner",
      "avatar": "https://s3.amazonaws.com/uifaces/faces/twitter/kosmar/128.jpg",
      "roles": [
        {
          "id": 1,
          "name": "User"
        }
      ],
      "email": "Lincoln94@hotmail.com",
      "phone": "113.934.0500 x82245",
      "twitter": "Courtney33@yahoo.com",
      "location": "91199 Fadel Loaf",
      "biography": "Aut dignissimos et laboriosam consequatur odit et rerum blanditiis. Ab reprehenderit non voluptatibus velit."
    },
    {
      "id": 51,
      "name": "Mariana Graham",
      "jobTitle": "Regional Group Technician",
      "avatar": "https://s3.amazonaws.com/uifaces/faces/twitter/alxndrustinov/128.jpg",
      "roles": [
        {
          "id": 1,
          "name": "User"
        }
      ],
      "email": "Salvatore_Kreiger@yahoo.com",
      "phone": "547-563-8353 x53001",
      "twitter": "Janie.Mertz35@hotmail.com",
      "location": "34420 Dooley Springs",
      "biography": "Et consequatur quis ea harum. Quia aut molestiae nam aut accusantium illum."
    },
    {
      "id": 52,
      "name": "Shemar Rempel",
      "jobTitle": "Lead Mobility Director",
      "avatar": "https://s3.amazonaws.com/uifaces/faces/twitter/ovall/128.jpg",
      "roles": [
        {
          "id": 1,
          "name": "User"
        }
      ],
      "email": "Jaiden.Toy17@yahoo.com",
      "phone": "(820) 999-6241",
      "twitter": "Maci97@yahoo.com",
      "location": "066 Pollich Camp",
      "biography": "Consectetur tempora numquam quos in architecto voluptatem non. Aperiam saepe voluptas quis possimus aut. Nesciunt repellat magnam provident vero voluptatibus qui nemo voluptate maiores. Harum provident dicta possimus quas reprehenderit tenetur dolor. Repellendus aut sunt occaecati quidem qui vero officiis repellendus."
    },
    {
      "id": 53,
      "name": "Tate Beier",
      "jobTitle": "Central Quality Consultant",
      "avatar": "https://s3.amazonaws.com/uifaces/faces/twitter/tomas_janousek/128.jpg",
      "roles": [
        {
          "id": 1,
          "name": "User"
        }
      ],
      "email": "Coy.Brekke@gmail.com",
      "phone": "1-984-600-5924",
      "twitter": "Marisa.Predovic@hotmail.com",
      "location": "090 Aurore Trafficway",
      "biography": "Ad expedita natus et. Et ut placeat animi rerum velit perspiciatis quis exercitationem. Et aut maxime corrupti optio incidunt fugit et."
    },
    {
      "id": 54,
      "name": "Garret Spinka",
      "jobTitle": "National Security Manager",
      "avatar": "https://s3.amazonaws.com/uifaces/faces/twitter/axel/128.jpg",
      "roles": [
        {
          "id": 1,
          "name": "User"
        }
      ],
      "email": "Albertha_Harber@yahoo.com",
      "phone": "186.243.3563 x639",
      "twitter": "Monique.Jerde@gmail.com",
      "location": "547 Mueller Road",
      "biography": "Nobis consequatur labore et porro omnis sed laboriosam repellendus recusandae. Minus et praesentium sunt placeat rem. Provident hic dolore nobis accusantium. Deleniti voluptas non. Qui assumenda magni architecto reprehenderit sunt ex fugit."
    },
    {
      "id": 55,
      "name": "Porter Predovic",
      "jobTitle": "Future Data Orchestrator",
      "avatar": "https://s3.amazonaws.com/uifaces/faces/twitter/angelceballos/128.jpg",
      "roles": [
        {
          "id": 1,
          "name": "User"
        }
      ],
      "email": "Linwood_Buckridge41@yahoo.com",
      "phone": "386.485.8617 x5882",
      "twitter": "Rafaela_Lueilwitz@yahoo.com",
      "location": "5378 Elisa Island",
      "biography": "A non quia amet eos qui rerum qui error facere. Ea eius pariatur sequi ut consequatur aut cum esse. Ut provident magnam aut qui aspernatur. Doloremque et voluptatem incidunt fugiat ea laudantium libero. Fugit at sed optio illo quos nobis. Et occaecati iure facere omnis enim qui exercitationem vitae explicabo."
    },
    {
      "id": 56,
      "name": "Syble Prohaska",
      "jobTitle": "District Interactions Engineer",
      "avatar": "https://s3.amazonaws.com/uifaces/faces/twitter/xtopherpaul/128.jpg",
      "roles": [
        {
          "id": 1,
          "name": "User"
        }
      ],
      "email": "Cade_Kilback95@hotmail.com",
      "phone": "1-207-391-4427 x599",
      "twitter": "Clinton50@gmail.com",
      "location": "727 Jonatan Spur",
      "biography": "Mollitia et sit quae. Eligendi mollitia dolorem doloremque aliquam voluptatem ut at error. Nisi sequi fugiat aut. Consequuntur molestiae est voluptates dolor quae sequi nihil. Omnis quis necessitatibus sed ut."
    },
    {
      "id": 57,
      "name": "Carmel Berge",
      "jobTitle": "Direct Mobility Officer",
      "avatar": "https://s3.amazonaws.com/uifaces/faces/twitter/juamperro/128.jpg",
      "roles": [
        {
          "id": 1,
          "name": "User"
        }
      ],
      "email": "Isom.Rodriguez36@hotmail.com",
      "phone": "978.795.5017 x993",
      "twitter": "Kassandra.Schroeder@hotmail.com",
      "location": "29937 Vincent Valleys",
      "biography": "Fugit facere omnis officiis non. Recusandae voluptas inventore."
    },
    {
      "id": 58,
      "name": "Emmie Veum",
      "jobTitle": "Corporate Quality Director",
      "avatar": "https://s3.amazonaws.com/uifaces/faces/twitter/michalhron/128.jpg",
      "roles": [
        {
          "id": 1,
          "name": "User"
        }
      ],
      "email": "Yasmeen10@hotmail.com",
      "phone": "1-847-442-4142 x810",
      "twitter": "Cortez74@gmail.com",
      "location": "61224 Verona Mall",
      "biography": "Sed qui et ipsam. Voluptatum voluptas adipisci quod. Sed eum rem id. Quis et magni quia. Quis quas et sequi reiciendis non aut. Corrupti earum et consequatur incidunt quae esse sequi animi magni."
    },
    {
      "id": 59,
      "name": "Kailyn Littel",
      "jobTitle": "Human Brand Liaison",
      "avatar": "https://s3.amazonaws.com/uifaces/faces/twitter/otozk/128.jpg",
      "roles": [
        {
          "id": 1,
          "name": "User"
        }
      ],
      "email": "Erika.Walter@hotmail.com",
      "phone": "1-600-790-8213",
      "twitter": "Dylan.Breitenberg@gmail.com",
      "location": "27350 Hauck Mountain",
      "biography": "Consectetur maxime itaque eos ut cupiditate repellat. Beatae optio labore similique eos et deleniti libero. Dolor voluptas sit aut est et. Sunt accusantium voluptatum esse quia optio praesentium rerum. Eos vero est eos consequatur impedit ut sunt qui. Id sunt quos ut eum fuga est."
    },
    {
      "id": 60,
      "name": "Julianne Ernser",
      "jobTitle": "Principal Data Officer",
      "avatar": "https://s3.amazonaws.com/uifaces/faces/twitter/kaspernordkvist/128.jpg",
      "roles": [
        {
          "id": 1,
          "name": "User"
        }
      ],
      "email": "Westley_Stiedemann82@hotmail.com",
      "phone": "1-646-433-9275 x9839",
      "twitter": "Mckenzie16@hotmail.com",
      "location": "28282 Zieme Highway",
      "biography": "Iusto voluptatum voluptas doloribus repellat. Ex tempora saepe minima sed quos et sequi veritatis in. Corrupti voluptas explicabo alias omnis."
    },
    {
      "id": 61,
      "name": "Shayne Ziemann",
      "jobTitle": "Human Metrics Supervisor",
      "avatar": "https://s3.amazonaws.com/uifaces/faces/twitter/waghner/128.jpg",
      "roles": [
        {
          "id": 1,
          "name": "User"
        }
      ],
      "email": "Arnulfo.Mann@yahoo.com",
      "phone": "503-277-1848 x2268",
      "twitter": "Virgie_Price60@hotmail.com",
      "location": "8217 Grimes Port",
      "biography": "Consectetur accusantium quas cum alias. Facere voluptatem quia ea."
    },
    {
      "id": 62,
      "name": "Cary Kuhlman",
      "jobTitle": "Lead Branding Developer",
      "avatar": "https://s3.amazonaws.com/uifaces/faces/twitter/antongenkin/128.jpg",
      "roles": [
        {
          "id": 1,
          "name": "User"
        }
      ],
      "email": "Mina.Gaylord@yahoo.com",
      "phone": "769.854.3053",
      "twitter": "Barry_Swift@gmail.com",
      "location": "071 Ratke Walks",
      "biography": "Error quibusdam expedita expedita dolor velit doloribus et accusamus. Reprehenderit et veritatis nulla exercitationem a nulla. Omnis illo aut dolores ipsum sapiente ut. Omnis quia unde repellat et accusantium iure vel culpa. Quidem nam fuga sit repellat voluptas. Hic quasi animi quasi laboriosam."
    },
    {
      "id": 63,
      "name": "Rogers Koelpin I",
      "jobTitle": "Regional Creative Administrator",
      "avatar": "https://s3.amazonaws.com/uifaces/faces/twitter/meln1ks/128.jpg",
      "roles": [
        {
          "id": 1,
          "name": "User"
        }
      ],
      "email": "Imogene.Will32@gmail.com",
      "phone": "(375) 957-7097 x574",
      "twitter": "Odessa.Kunde@hotmail.com",
      "location": "3078 Yundt Plaza",
      "biography": "Accusantium enim debitis ut. Quaerat voluptas autem."
    },
    {
      "id": 64,
      "name": "Osbaldo Parisian",
      "jobTitle": "Human Creative Executive",
      "avatar": "https://s3.amazonaws.com/uifaces/faces/twitter/gabrielizalo/128.jpg",
      "roles": [
        {
          "id": 1,
          "name": "User"
        }
      ],
      "email": "Lempi44@yahoo.com",
      "phone": "(267) 327-2461 x85618",
      "twitter": "Vincenza.Nader@hotmail.com",
      "location": "46634 Johnston Ville",
      "biography": "Porro omnis rem mollitia consequatur repellat quo quisquam deserunt facere. Ab aut at pariatur molestiae impedit. Voluptatem voluptatum architecto nobis laborum non maiores aut. Accusantium vitae atque. Ut expedita voluptatum."
    },
    {
      "id": 65,
      "name": "Kavon Jakubowski",
      "jobTitle": "Lead Identity Facilitator",
      "avatar": "https://s3.amazonaws.com/uifaces/faces/twitter/mactopus/128.jpg",
      "roles": [
        {
          "id": 1,
          "name": "User"
        }
      ],
      "email": "Camron_Fisher54@yahoo.com",
      "phone": "1-101-680-0545",
      "twitter": "Garrison_Volkman@yahoo.com",
      "location": "39473 Orpha Club",
      "biography": "Aut est voluptatum non non neque. Nostrum sed ratione dolore eveniet."
    },
    {
      "id": 66,
      "name": "General Ferry",
      "jobTitle": "Chief Marketing Orchestrator",
      "avatar": "https://s3.amazonaws.com/uifaces/faces/twitter/croakx/128.jpg",
      "roles": [
        {
          "id": 1,
          "name": "User"
        }
      ],
      "email": "Sarai_Bernhard@hotmail.com",
      "phone": "(654) 727-8772",
      "twitter": "Willie52@yahoo.com",
      "location": "317 Nannie Landing",
      "biography": "Quas et eos dolorem. Delectus ratione vitae quia in. Quasi optio expedita modi. Qui voluptas animi sunt. Sint nisi enim sed commodi quas repellat amet corrupti. Ea qui porro omnis consequatur dolores."
    },
    {
      "id": 67,
      "name": "Eliezer Kovacek DDS",
      "jobTitle": "Product Accountability Associate",
      "avatar": "https://s3.amazonaws.com/uifaces/faces/twitter/louis_currie/128.jpg",
      "roles": [
        {
          "id": 1,
          "name": "User"
        }
      ],
      "email": "Albina.Daniel32@gmail.com",
      "phone": "215.936.3905",
      "twitter": "Lesley.Konopelski22@gmail.com",
      "location": "131 Crist Cliff",
      "biography": "Voluptatem minima pariatur dolor provident. Consectetur unde et."
    },
    {
      "id": 68,
      "name": "Deon Hilll",
      "jobTitle": "Senior Division Coordinator",
      "avatar": "https://s3.amazonaws.com/uifaces/faces/twitter/ManikRathee/128.jpg",
      "roles": [
        {
          "id": 1,
          "name": "User"
        }
      ],
      "email": "Mustafa_Abshire@yahoo.com",
      "phone": "1-674-943-3958 x586",
      "twitter": "Geo.Schroeder@yahoo.com",
      "location": "759 Al Green",
      "biography": "Dolor nulla sit dignissimos tenetur ipsum. In atque nihil sunt corporis ad nisi sit veritatis cum."
    },
    {
      "id": 69,
      "name": "Harry Tromp",
      "jobTitle": "District Brand Analyst",
      "avatar": "https://s3.amazonaws.com/uifaces/faces/twitter/renbyrd/128.jpg",
      "roles": [
        {
          "id": 1,
          "name": "User"
        }
      ],
      "email": "Neha.Brakus@gmail.com",
      "phone": "(830) 173-9659 x7532",
      "twitter": "Marcus49@yahoo.com",
      "location": "6702 Upton Orchard",
      "biography": "Nisi dolor reiciendis nisi nam aut dolor sit. Et consequuntur et. Officia velit culpa perspiciatis nulla qui voluptatibus eum."
    },
    {
      "id": 70,
      "name": "Mylene Gaylord",
      "jobTitle": "Direct Solutions Producer",
      "avatar": "https://s3.amazonaws.com/uifaces/faces/twitter/jitachi/128.jpg",
      "roles": [
        {
          "id": 1,
          "name": "User"
        }
      ],
      "email": "Moriah.Mraz@gmail.com",
      "phone": "636.791.3878 x020",
      "twitter": "Jayme79@yahoo.com",
      "location": "49089 Esta Ville",
      "biography": "Ut voluptas voluptatem quos dolorem delectus non ipsum. Unde omnis amet ut. Dignissimos voluptates laborum fugit suscipit."
    },
    {
      "id": 71,
      "name": "Brian Kuhlman V",
      "jobTitle": "Customer Web Facilitator",
      "avatar": "https://s3.amazonaws.com/uifaces/faces/twitter/bassamology/128.jpg",
      "roles": [
        {
          "id": 1,
          "name": "User"
        }
      ],
      "email": "Travon_Rosenbaum@hotmail.com",
      "phone": "119-596-8678",
      "twitter": "Christelle_Marvin@yahoo.com",
      "location": "758 Einar Grove",
      "biography": "Minus maxime reiciendis commodi. Ullam eaque quas itaque ut. Incidunt sapiente qui consequatur occaecati optio consectetur sit. Quibusdam sapiente vitae facere odio deserunt."
    },
    {
      "id": 72,
      "name": "Rex Sauer",
      "jobTitle": "Customer Directives Administrator",
      "avatar": "https://s3.amazonaws.com/uifaces/faces/twitter/strikewan/128.jpg",
      "roles": [
        {
          "id": 1,
          "name": "User"
        }
      ],
      "email": "Elliot.Little@gmail.com",
      "phone": "(223) 303-5695 x41899",
      "twitter": "Myles.Dietrich56@yahoo.com",
      "location": "2900 O'Reilly Prairie",
      "biography": "Ad ut animi sed repudiandae sed nam rem. Ullam consequatur voluptas eveniet dolores doloribus vero odit inventore. Numquam cupiditate tenetur quibusdam placeat dolor dolores. Et incidunt eos necessitatibus nam quis et aut et ea. Et quae inventore consequatur est delectus possimus recusandae facere."
    },
    {
      "id": 73,
      "name": "Monserrat Keeling",
      "jobTitle": "Direct Configuration Technician",
      "avatar": "https://s3.amazonaws.com/uifaces/faces/twitter/isacosta/128.jpg",
      "roles": [
        {
          "id": 1,
          "name": "User"
        }
      ],
      "email": "Odell97@hotmail.com",
      "phone": "819-504-3984 x38673",
      "twitter": "Henry.Crona42@yahoo.com",
      "location": "9963 Goyette Fork",
      "biography": "Est quod dolor consequatur voluptatem explicabo officiis. Perferendis dolorem ut at eveniet quis est sit et rem. Natus rerum a esse quod aperiam."
    },
    {
      "id": 74,
      "name": "Milton Terry",
      "jobTitle": "Investor Metrics Manager",
      "avatar": "https://s3.amazonaws.com/uifaces/faces/twitter/cyril_gaillard/128.jpg",
      "roles": [
        {
          "id": 1,
          "name": "User"
        }
      ],
      "email": "Alyson.Larson@gmail.com",
      "phone": "631.991.5805",
      "twitter": "Reba_McGlynn56@gmail.com",
      "location": "19351 Kennedy Motorway",
      "biography": "Consequuntur dolores cum corrupti totam veniam quis est sit. Quisquam expedita laboriosam eos placeat. Sed vitae cumque veritatis aut sunt quaerat corporis. Qui rerum soluta beatae aut tempore aperiam illum repudiandae totam."
    },
    {
      "id": 75,
      "name": "Lamont Nolan",
      "jobTitle": "Future Accounts Director",
      "avatar": "https://s3.amazonaws.com/uifaces/faces/twitter/andrea211087/128.jpg",
      "roles": [
        {
          "id": 1,
          "name": "User"
        }
      ],
      "email": "Elias83@yahoo.com",
      "phone": "194-736-0601 x6752",
      "twitter": "Paolo21@yahoo.com",
      "location": "15625 Ezekiel Trail",
      "biography": "Debitis est omnis nam quis cum eveniet est ut qui. Quos consectetur cum animi eveniet reiciendis voluptates necessitatibus excepturi impedit."
    },
    {
      "id": 76,
      "name": "Alden Anderson",
      "jobTitle": "Regional Configuration Coordinator",
      "avatar": "https://s3.amazonaws.com/uifaces/faces/twitter/karsh/128.jpg",
      "roles": [
        {
          "id": 1,
          "name": "User"
        }
      ],
      "email": "Kasey58@gmail.com",
      "phone": "(205) 022-5729 x07440",
      "twitter": "Dejah.Durgan49@hotmail.com",
      "location": "3293 Dariana Meadow",
      "biography": "Optio eum et debitis vel enim occaecati. In qui ex accusamus voluptatem consectetur soluta et tenetur. Adipisci accusamus non."
    },
    {
      "id": 77,
      "name": "Howard Braun",
      "jobTitle": "Dynamic Functionality Developer",
      "avatar": "https://s3.amazonaws.com/uifaces/faces/twitter/karalek/128.jpg",
      "roles": [
        {
          "id": 1,
          "name": "User"
        }
      ],
      "email": "Russ7@yahoo.com",
      "phone": "315.121.2028",
      "twitter": "Clyde_Feest@hotmail.com",
      "location": "16865 Eveline Points",
      "biography": "Ipsam cupiditate non nesciunt quisquam qui nam aliquid error in. Corporis inventore earum nihil. Odit fuga quis. Fuga pariatur fuga nostrum blanditiis placeat corporis vero enim. Molestiae provident a quos eum aut. Aperiam sed fuga."
    },
    {
      "id": 78,
      "name": "Cleveland Kulas I",
      "jobTitle": "Chief Web Designer",
      "avatar": "https://s3.amazonaws.com/uifaces/faces/twitter/matbeedotcom/128.jpg",
      "roles": [
        {
          "id": 1,
          "name": "User"
        }
      ],
      "email": "Lilian96@hotmail.com",
      "phone": "945.368.3204",
      "twitter": "Vaughn_Marvin57@hotmail.com",
      "location": "755 Teagan Locks",
      "biography": "Et distinctio nam est ut sunt eos officiis ut reprehenderit. Commodi et voluptatem sapiente tenetur esse perspiciatis. Tempora occaecati velit repudiandae a. Sed delectus et recusandae."
    },
    {
      "id": 79,
      "name": "Leopoldo Hand I",
      "jobTitle": "Future Usability Liaison",
      "avatar": "https://s3.amazonaws.com/uifaces/faces/twitter/hermanobrother/128.jpg",
      "roles": [
        {
          "id": 1,
          "name": "User"
        }
      ],
      "email": "Brennan_Volkman@hotmail.com",
      "phone": "1-631-135-4689",
      "twitter": "Zion_Zemlak32@gmail.com",
      "location": "972 Fay Ways",
      "biography": "Nihil delectus quia iste tempora hic sed. Eligendi culpa enim consequuntur."
    },
    {
      "id": 80,
      "name": "Benedict Kovacek",
      "jobTitle": "Product Solutions Orchestrator",
      "avatar": "https://s3.amazonaws.com/uifaces/faces/twitter/runningskull/128.jpg",
      "roles": [
        {
          "id": 1,
          "name": "User"
        }
      ],
      "email": "Sigmund.Swaniawski19@yahoo.com",
      "phone": "1-499-076-5942",
      "twitter": "Morton_OKeefe72@yahoo.com",
      "location": "9975 Jaskolski Route",
      "biography": "Vero quasi perspiciatis praesentium. Soluta corrupti ducimus aut perspiciatis eos porro in ex assumenda. Accusamus facere temporibus sunt modi culpa itaque nisi natus dignissimos."
    },
    {
      "id": 81,
      "name": "Maybelle Sawayn DVM",
      "jobTitle": "Senior Metrics Analyst",
      "avatar": "https://s3.amazonaws.com/uifaces/faces/twitter/mufaddal_mw/128.jpg",
      "roles": [
        {
          "id": 1,
          "name": "User"
        }
      ],
      "email": "Edgar_Kunde@yahoo.com",
      "phone": "1-868-993-8598 x272",
      "twitter": "Anita_Kutch99@yahoo.com",
      "location": "72172 Willms Port",
      "biography": "Autem qui nihil. A a vel dolore vitae ex sunt neque rerum quidem. Ducimus totam molestias inventore sunt rerum. Aut voluptas nobis ut magni. Sapiente delectus tempora ut facilis commodi recusandae corporis consequatur exercitationem. Earum eveniet harum dolor maiores maxime."
    },
    {
      "id": 82,
      "name": "Mr. Raquel Harris",
      "jobTitle": "Internal Creative Assistant",
      "avatar": "https://s3.amazonaws.com/uifaces/faces/twitter/karlkanall/128.jpg",
      "roles": [
        {
          "id": 1,
          "name": "User"
        }
      ],
      "email": "Emilia24@gmail.com",
      "phone": "708-718-1927",
      "twitter": "Ben27@hotmail.com",
      "location": "48190 Abernathy Light",
      "biography": "Odit natus odio vel. Ut soluta et perferendis velit atque. Quasi totam asperiores placeat occaecati nihil."
    },
    {
      "id": 83,
      "name": "Jay Mosciski",
      "jobTitle": "Legacy Operations Administrator",
      "avatar": "https://s3.amazonaws.com/uifaces/faces/twitter/rmlewisuk/128.jpg",
      "roles": [
        {
          "id": 1,
          "name": "User"
        }
      ],
      "email": "Etha33@gmail.com",
      "phone": "799-596-2279",
      "twitter": "Madaline_DuBuque92@yahoo.com",
      "location": "50887 Mohr Path",
      "biography": "Expedita beatae sed ab quidem omnis odio iusto quo. Voluptatem deleniti voluptatem. Iste unde in voluptatum molestiae officia deleniti. Repudiandae nulla dicta cupiditate dolorem optio sed ratione saepe. Necessitatibus et voluptatibus eum quia ea ea."
    },
    {
      "id": 84,
      "name": "Isaiah Witting",
      "jobTitle": "Regional Paradigm Analyst",
      "avatar": "https://s3.amazonaws.com/uifaces/faces/twitter/mhudobivnik/128.jpg",
      "roles": [
        {
          "id": 1,
          "name": "User"
        }
      ],
      "email": "Tad.Greenfelder@yahoo.com",
      "phone": "561-428-3377 x7035",
      "twitter": "Reilly_Langworth90@hotmail.com",
      "location": "2695 Stokes Springs",
      "biography": "Et et et reprehenderit aspernatur voluptatem ut. Enim consequuntur non officia optio culpa. Et sit praesentium delectus omnis sed iure maxime. Sed non dolores. Labore et qui quisquam sunt."
    },
    {
      "id": 85,
      "name": "Dr. Brionna King",
      "jobTitle": "Global Branding Orchestrator",
      "avatar": "https://s3.amazonaws.com/uifaces/faces/twitter/carlfairclough/128.jpg",
      "roles": [
        {
          "id": 1,
          "name": "User"
        }
      ],
      "email": "Isaac.Hoppe@hotmail.com",
      "phone": "901.086.2216",
      "twitter": "Manley.Schaden@hotmail.com",
      "location": "68712 Miller Row",
      "biography": "Sed ut ut qui ducimus ut vitae quia iusto. Ducimus ratione fugit et reprehenderit et odit. Nulla expedita magnam. Debitis placeat assumenda necessitatibus laboriosam id et cumque assumenda autem. Et aut impedit eius."
    },
    {
      "id": 86,
      "name": "Paxton Schulist",
      "jobTitle": "Dynamic Infrastructure Producer",
      "avatar": "https://s3.amazonaws.com/uifaces/faces/twitter/thekevinjones/128.jpg",
      "roles": [
        {
          "id": 1,
          "name": "User"
        }
      ],
      "email": "Buford63@yahoo.com",
      "phone": "(777) 885-8074 x30358",
      "twitter": "Gust68@gmail.com",
      "location": "14154 Shanel Canyon",
      "biography": "Iure incidunt quae doloribus numquam iure aut modi non. Dolorem necessitatibus reiciendis est omnis est."
    },
    {
      "id": 87,
      "name": "Adonis Carroll",
      "jobTitle": "Investor Optimization Planner",
      "avatar": "https://s3.amazonaws.com/uifaces/faces/twitter/weglov/128.jpg",
      "roles": [
        {
          "id": 1,
          "name": "User"
        }
      ],
      "email": "Murl.Marks74@yahoo.com",
      "phone": "365.788.7995",
      "twitter": "Elfrieda_Sipes@yahoo.com",
      "location": "413 Larkin Fords",
      "biography": "Sint at id aliquam ut et placeat nisi aspernatur suscipit. Nobis ut ab unde autem non explicabo voluptas libero dolores. Laboriosam mollitia in sit."
    },
    {
      "id": 88,
      "name": "Morgan Little",
      "jobTitle": "Corporate Integration Facilitator",
      "avatar": "https://s3.amazonaws.com/uifaces/faces/twitter/mattsapii/128.jpg",
      "roles": [
        {
          "id": 1,
          "name": "User"
        }
      ],
      "email": "Jeanette82@hotmail.com",
      "phone": "144.138.1071",
      "twitter": "Kaci.Zboncak18@yahoo.com",
      "location": "4927 Mueller Plaza",
      "biography": "Et dolores qui qui optio. Perferendis cumque commodi aut eius ut corrupti. Voluptate nihil eaque quis fuga sunt. Maiores dignissimos dignissimos voluptas."
    },
    {
      "id": 89,
      "name": "Nash Greenfelder DVM",
      "jobTitle": "Direct Group Assistant",
      "avatar": "https://s3.amazonaws.com/uifaces/faces/twitter/smenov/128.jpg",
      "roles": [
        {
          "id": 1,
          "name": "User"
        }
      ],
      "email": "Fern85@hotmail.com",
      "phone": "424.549.6219",
      "twitter": "Guadalupe52@gmail.com",
      "location": "714 April Canyon",
      "biography": "Consequatur tempora reiciendis repudiandae. Et ut blanditiis commodi vero quos. Dolorem voluptatem accusamus delectus cumque. Neque accusantium laborum porro corporis. Asperiores qui rem minus eveniet excepturi."
    },
    {
      "id": 90,
      "name": "Mrs. Americo Thompson",
      "jobTitle": "Global Directives Facilitator",
      "avatar": "https://s3.amazonaws.com/uifaces/faces/twitter/barputro/128.jpg",
      "roles": [
        {
          "id": 1,
          "name": "User"
        }
      ],
      "email": "Austin99@gmail.com",
      "phone": "(997) 986-7986",
      "twitter": "Hal22@gmail.com",
      "location": "55289 Stanton Tunnel",
      "biography": "Et quia aperiam sed nam omnis quaerat ut doloribus sint. Eos earum sunt deleniti omnis. Ab aut voluptate."
    },
    {
      "id": 91,
      "name": "Gina Beier",
      "jobTitle": "Legacy Assurance Specialist",
      "avatar": "https://s3.amazonaws.com/uifaces/faces/twitter/webtanya/128.jpg",
      "roles": [
        {
          "id": 1,
          "name": "User"
        }
      ],
      "email": "Guadalupe_Schulist@yahoo.com",
      "phone": "607.477.9650",
      "twitter": "Miles.Fisher15@yahoo.com",
      "location": "93512 Whitney Curve",
      "biography": "Non soluta rerum dolor ad aut. Sit natus officia quidem rerum molestiae in voluptatem consequatur. Dolorem iusto ea laborum sit porro nobis sunt eaque. Nisi tempore animi sint pariatur."
    },
    {
      "id": 92,
      "name": "Durward Christiansen",
      "jobTitle": "Central Quality Strategist",
      "avatar": "https://s3.amazonaws.com/uifaces/faces/twitter/artvavs/128.jpg",
      "roles": [
        {
          "id": 1,
          "name": "User"
        }
      ],
      "email": "Santina_Satterfield44@hotmail.com",
      "phone": "1-877-089-6220",
      "twitter": "Kraig17@gmail.com",
      "location": "60084 Lafayette Lake",
      "biography": "Qui quia iste aut doloribus quis tempore ipsum maiores. Est quas molestiae enim quisquam. Consequuntur ut repellat laudantium asperiores est."
    },
    {
      "id": 93,
      "name": "Mrs. Jean Stiedemann",
      "jobTitle": "Future Directives Liaison",
      "avatar": "https://s3.amazonaws.com/uifaces/faces/twitter/uberschizo/128.jpg",
      "roles": [
        {
          "id": 1,
          "name": "User"
        }
      ],
      "email": "Danial50@hotmail.com",
      "phone": "262-974-8661",
      "twitter": "Kade_Raynor@gmail.com",
      "location": "21458 Stamm Walks",
      "biography": "Iure facere excepturi provident eius et. Maiores molestiae velit optio cupiditate."
    },
    {
      "id": 94,
      "name": "Ashlee Collier",
      "jobTitle": "Lead Applications Officer",
      "avatar": "https://s3.amazonaws.com/uifaces/faces/twitter/benoitboucart/128.jpg",
      "roles": [
        {
          "id": 1,
          "name": "User"
        }
      ],
      "email": "Tamia_Pollich27@yahoo.com",
      "phone": "469-473-8275 x6863",
      "twitter": "Cecilia_Douglas@hotmail.com",
      "location": "84762 McDermott Springs",
      "biography": "Quia dolor tempore rerum pariatur doloremque tempore officia expedita. Veniam ut exercitationem ut possimus ducimus numquam possimus nisi impedit. Quia facilis voluptas incidunt consectetur. Eum unde accusantium pariatur. Rerum culpa nihil odio porro odio et est."
    },
    {
      "id": 95,
      "name": "Cathrine Gottlieb",
      "jobTitle": "Dynamic Implementation Facilitator",
      "avatar": "https://s3.amazonaws.com/uifaces/faces/twitter/marcomano_/128.jpg",
      "roles": [
        {
          "id": 1,
          "name": "User"
        }
      ],
      "email": "Emile.Hauck30@hotmail.com",
      "phone": "1-479-957-4654 x1883",
      "twitter": "Kamille57@gmail.com",
      "location": "248 Kristy Station",
      "biography": "Voluptas dolor mollitia consequatur sint quia. Neque accusamus necessitatibus quasi aut tempore. Voluptatem dolorem ipsam et ullam dolores. Neque et debitis illo non repudiandae ad. Consequatur repellendus corrupti accusantium. Sit provident delectus qui recusandae facere tenetur aut."
    },
    {
      "id": 96,
      "name": "Earnest Lebsack III",
      "jobTitle": "Dynamic Operations Coordinator",
      "avatar": "https://s3.amazonaws.com/uifaces/faces/twitter/dgajjar/128.jpg",
      "roles": [
        {
          "id": 1,
          "name": "User"
        }
      ],
      "email": "Tiffany_Hartmann@gmail.com",
      "phone": "(173) 205-2369",
      "twitter": "Rosalyn41@gmail.com",
      "location": "1222 Mariano Circle",
      "biography": "Error et praesentium. Voluptas eum aut nihil ut qui."
    },
    {
      "id": 97,
      "name": "Kobe Breitenberg",
      "jobTitle": "Lead Usability Specialist",
      "avatar": "https://s3.amazonaws.com/uifaces/faces/twitter/klimmka/128.jpg",
      "roles": [
        {
          "id": 1,
          "name": "User"
        }
      ],
      "email": "Judy.Huel38@gmail.com",
      "phone": "691-896-9611 x1039",
      "twitter": "Marco.Corkery@hotmail.com",
      "location": "847 Bradtke Divide",
      "biography": "Perferendis eius deserunt. Qui rerum fuga nostrum vitae omnis aut. Qui illo quidem eius molestiae non. Dolorem doloribus eos et temporibus. Aut necessitatibus aspernatur voluptatem maiores. Maxime et hic suscipit consequatur tempora distinctio non reiciendis."
    },
    {
      "id": 98,
      "name": "Foster Roob",
      "jobTitle": "National Program Agent",
      "avatar": "https://s3.amazonaws.com/uifaces/faces/twitter/roybarberuk/128.jpg",
      "roles": [
        {
          "id": 1,
          "name": "User"
        }
      ],
      "email": "Delilah.Quigley7@yahoo.com",
      "phone": "(935) 164-8566 x095",
      "twitter": "Hazle58@yahoo.com",
      "location": "329 Beau Pines",
      "biography": "Qui nam nulla qui. Accusantium saepe quisquam amet qui quibusdam iusto vero ad at. Iusto id esse magnam corrupti quibusdam omnis sapiente. Error similique quia quod dignissimos dolores impedit ut."
    },
    {
      "id": 99,
      "name": "Arne Dicki",
      "jobTitle": "Corporate Operations Liaison",
      "avatar": "https://s3.amazonaws.com/uifaces/faces/twitter/hiemil/128.jpg",
      "roles": [
        {
          "id": 1,
          "name": "User"
        }
      ],
      "email": "Jarred_Bogan11@hotmail.com",
      "phone": "(168) 215-2241",
      "twitter": "Burdette_Schmidt@gmail.com",
      "location": "2182 Noel Mountains",
      "biography": "Impedit eveniet eaque ipsum quasi nulla non. Dolore magni eos sapiente molestias quo sed dicta. Molestiae ipsam voluptatem repellendus voluptatem harum. Veritatis eius perferendis. Cumque est ducimus beatae laborum illum itaque ea ex."
    },
    {
      "id": 100,
      "name": "Alize Balistreri",
      "jobTitle": "Global Markets Specialist",
      "avatar": "https://s3.amazonaws.com/uifaces/faces/twitter/peachananr/128.jpg",
      "roles": [
        {
          "id": 1,
          "name": "User"
        }
      ],
      "email": "Chad.Schumm@hotmail.com",
      "phone": "1-881-344-5867 x88291",
      "twitter": "Jermey_Crist52@gmail.com",
      "location": "266 Jose Stravenue",
      "biography": "Beatae similique ut magni dolorum magni et molestias temporibus aut. Iure in in ut. Cum sunt nam. Sint dolor impedit et. Voluptas similique animi omnis consectetur esse. Aut dolores quod et quae."
    }
  ]
}